…
From results of the code below, there are 465 distinct stations.

``` r
subway_data %>%
  select(line, station_name) %>%
  distinct
```

    ## # A tibble: 465 × 2
    ##    line     station_name            
    ##    <chr>    <chr>                   
    ##  1 4 Avenue 25th St                 
    ##  2 4 Avenue 36th St                 
    ##  3 4 Avenue 45th St                 
    ##  4 4 Avenue 53rd St                 
    ##  5 4 Avenue 59th St                 
    ##  6 4 Avenue 77th St                 
    ##  7 4 Avenue 86th St                 
    ##  8 4 Avenue 95th St                 
    ##  9 4 Avenue 9th St                  
    ## 10 4 Avenue Atlantic Av-Barclays Ctr
    ## # … with 455 more rows

From results of the code below, 84 station are ADA compliant.

``` r
subway_data %>% 
  filter(ada == TRUE) %>% 
  select(station_name, line) %>% 
  distinct
```

    ## # A tibble: 84 × 2
    ##    station_name                   line           
    ##    <chr>                          <chr>          
    ##  1 Atlantic Av-Barclays Ctr       4 Avenue       
    ##  2 DeKalb Av                      4 Avenue       
    ##  3 Pacific St                     4 Avenue       
    ##  4 Grand Central                  42nd St Shuttle
    ##  5 34th St                        6 Avenue       
    ##  6 47-50th Sts Rockefeller Center 6 Avenue       
    ##  7 Church Av                      6 Avenue       
    ##  8 21st St                        63rd Street    
    ##  9 Lexington Av                   63rd Street    
    ## 10 Roosevelt Island               63rd Street    
    ## # … with 74 more rows
…
There are 60 distinct stations serve the A train.

``` r
subway_data %>%
pivot_longer(
    route1:route11,
    names_to = "route_num",
    values_to = "route") %>%
  filter(route == "A") %>%
  select(line, station_name) %>%
  distinct
```

    ## # A tibble: 60 × 2
    ##    line            station_name                 
    ##    <chr>           <chr>                        
    ##  1 42nd St Shuttle Times Square                 
    ##  2 8 Avenue        125th St                     
    ##  3 8 Avenue        145th St                     
    ##  4 8 Avenue        14th St                      
    ##  5 8 Avenue        168th St - Washington Heights
    ##  6 8 Avenue        175th St                     
    ##  7 8 Avenue        181st St                     
    ##  8 8 Avenue        190th St                     
    ##  9 8 Avenue        34th St                      
    ## 10 8 Avenue        42nd St                      
    ## # … with 50 more rows
…
Join the datasets.

``` r
FiveThirtyEight = 
  left_join(pols_month, snp, by = c("year", "month")) %>%
  left_join(unemployment, by = c("year", "month"))

FiveThirtyEight
```

    ## # A tibble: 822 × 11
    ##     year month gov_gop sen_gop rep_gop gov_dem sen_dem rep_dem president close
    ##    <dbl> <chr>   <dbl>   <dbl>   <dbl>   <dbl>   <dbl>   <dbl> <chr>     <dbl>
    ##  1  1947 Jan        23      51     253      23      45     198 dem          NA
    ##  2  1947 Feb        23      51     253      23      45     198 dem          NA
    ##  3  1947 Mar        23      51     253      23      45     198 dem          NA
    ##  4  1947 Apr        23      51     253      23      45     198 dem          NA
    ##  5  1947 May        23      51     253      23      45     198 dem          NA
    ##  6  1947 Jun        23      51     253      23      45     198 dem          NA
    ##  7  1947 Jul        23      51     253      23      45     198 dem          NA
    ##  8  1947 Aug        23      51     253      23      45     198 dem          NA
    ##  9  1947 Sep        23      51     253      23      45     198 dem          NA
    ## 10  1947 Oct        23      51     253      23      45     198 dem          NA
    ## # … with 812 more rows, and 1 more variable: percentage_of_unemployment <dbl>
…
